<?xml version="1.0" encoding="UTF-8" standalone="no" ?>
<kml xmlns="http://www.opengis.net/kml/2.2" xmlns:gx="http://www.google.com/kml/ext/2.2">

  <Folder>
    <name>sede_ecomuseu</name>
    <description>Created with
      <a href="http://sketchup.google.com"> Google SketchUp</a>
    </description>
    <visibility>1</visibility>
    <LookAt>
      <heading>38.9942113765</heading>
      <tilt>50.04467197573</tilt>
      <latitude>41.82519653435</latitude>
      <longitude>-7.791292407008</longitude>
      <range>73.46892850917</range>
      <altitude>47.29149088826</altitude>
    </LookAt>
    <Folder>
      <name>Tour</name>
      <Placemark>
        <name>Scene 1</name>
        <visibility>1</visibility>
        <LookAt>
          <heading>38.9942113765</heading>
          <tilt>50.04467197573</tilt>
          <latitude>41.82519653435</latitude>
          <longitude>-7.791292407008</longitude>
          <range>73.46892850917</range>
          <altitude>47.29149088826</altitude>
        </LookAt>
      </Placemark>
    </Folder>
    <Placemark>
      <name>Model</name>
      <description></description>
      <Style id="default"/>
      <Model>
        <altitudeMode>relativeToGround</altitudeMode>
        <Location>
          <latitude>41.82529536604</latitude>
          <longitude>-7.791381297817</longitude>
          <altitude>1</altitude>
        </Location>
        <Orientation>
          <heading>-0</heading>
          <tilt>0</tilt>
          <roll>0</roll>
        </Orientation>
        <Scale>
          <x>1</x>
          <y>1</y>
          <z>1</z>
        </Scale>
        <Link>
          <href>models/conv_untitled.osg</href>
        </Link>
      </Model>
    </Placemark>
  </Folder>

</kml>
